<svg width="38" height="42" viewBox="0 0 38 42" fill="none" xmlns="http://www.w3.org/2000/svg">
<path d="M33.5833 4.33335H31.5V2.25002C31.5 1.10419 30.5625 0.166687 29.4167 0.166687C28.2708 0.166687 27.3333 1.10419 27.3333 2.25002V4.33335H10.6667V2.25002C10.6667 1.10419 9.72917 0.166687 8.58333 0.166687C7.4375 0.166687 6.5 1.10419 6.5 2.25002V4.33335H4.41667C2.10417 4.33335 0.270833 6.20835 0.270833 8.50002L0.25 37.6667C0.25 39.9584 2.10417 41.8334 4.41667 41.8334H33.5833C35.875 41.8334 37.75 39.9584 37.75 37.6667V8.50002C37.75 6.20835 35.875 4.33335 33.5833 4.33335ZM33.5833 35.5834C33.5833 36.7292 32.6458 37.6667 31.5 37.6667H6.5C5.35417 37.6667 4.41667 36.7292 4.41667 35.5834V14.75H33.5833V35.5834ZM8.58333 18.9167H12.75V23.0834H8.58333V18.9167ZM16.9167 18.9167H21.0833V23.0834H16.9167V18.9167ZM25.25 18.9167H29.4167V23.0834H25.25V18.9167Z" fill="#FFF7F5"/>
</svg>
