<svg width="36" height="45" viewBox="0 0 36 45" fill="none" xmlns="http://www.w3.org/2000/svg">
<path d="M18 20.4545C19.9778 20.4545 21.9112 19.8547 23.5557 18.7309C25.2002 17.6072 26.4819 16.0099 27.2388 14.1411C27.9957 12.2723 28.1937 10.2159 27.8079 8.23204C27.422 6.24814 26.4696 4.42581 25.0711 2.9955C23.6725 1.56519 21.8907 0.59114 19.9509 0.196519C18.0111 -0.198103 16.0004 0.00443126 14.1732 0.778509C12.3459 1.55259 10.7841 2.86344 9.6853 4.54531C8.58649 6.22717 8 8.20451 8 10.2273C8.00318 12.9387 9.05776 15.5382 10.9324 17.4555C12.8071 19.3727 15.3488 20.4513 18 20.4545ZM18 4.09091C19.1867 4.09091 20.3467 4.4508 21.3334 5.12508C22.3201 5.79935 23.0892 6.75772 23.5433 7.87899C23.9974 9.00027 24.1162 10.2341 23.8847 11.4244C23.6532 12.6148 23.0818 13.7082 22.2426 14.5663C21.4035 15.4245 20.3344 16.009 19.1705 16.2457C18.0067 16.4825 16.8003 16.361 15.7039 15.8965C14.6075 15.4321 13.6705 14.6456 13.0112 13.6365C12.3519 12.6273 12 11.4409 12 10.2273C12 8.59981 12.6321 7.039 13.7574 5.88821C14.8826 4.73742 16.4087 4.09091 18 4.09091ZM2 45H34C34.5304 45 35.0391 44.7845 35.4142 44.4009C35.7893 44.0173 36 43.497 36 42.9545V34.7727C35.9968 32.0613 34.9422 29.4618 33.0676 27.5445C31.1929 25.6273 28.6512 24.5487 26 24.5455H10C7.34881 24.5487 4.80712 25.6273 2.93244 27.5445C1.05776 29.4618 0.00317572 32.0613 0 34.7727V42.9545C0 43.497 0.210714 44.0173 0.585786 44.4009C0.960859 44.7845 1.46957 45 2 45ZM4 34.7727C4 33.1453 4.63214 31.5845 5.75736 30.4337C6.88258 29.2829 8.4087 28.6364 10 28.6364H26C27.5913 28.6364 29.1174 29.2829 30.2426 30.4337C31.3679 31.5845 32 33.1453 32 34.7727V40.9091H4V34.7727Z" fill="#393C46"/>
</svg>
